DRTC-H – Investigacion_GRH
…
# Identificar picos y caídas (>50% cambio)
picos_caidas <- analisis_mensual %>%
  filter(abs(Cambio_Mensual) > 50, !is.na(Cambio_Mensual)) %>%
  mutate(
    Tipo = ifelse(Cambio_Mensual > 0, "PICO", "CAÍDA"),
    Mes_Año = format(Año_Mes, "%b-%Y")
  )
print(picos_caidas %>% select(Mes_Año, Tipo, Cambio_Mensual, Monto_Mensual))

# A tibble: 25 × 4
   Mes_Año   Tipo  Cambio_Mensual Monto_Mensual
   <chr>     <chr>          <dbl>         <dbl>
 1 Feb.-2022 PICO           981.        867542.
 2 Mar.-2022 PICO            53.8      1334709.
 3 Abr.-2022 CAÍDA          -85.5       193331.
 4 May.-2022 PICO           325.        822577.
 5 Jun.-2022 CAÍDA          -99.1         7100 
 6 Dic.-2022 PICO        176736.      12555359.
 7 Ene.-2023 CAÍDA          -99.8        25362.
 8 Feb.-2023 PICO          2542.        670118.
 9 May.-2023 PICO           234.       2521894 
10 Jun.-2023 CAÍDA          -58.2      1053311.
# ℹ 15 more rows
…
